XCoord;YCoord;KOD;KAT;NAZEV
-717614,11838442;-1096647,24540777;21;CHKO;Blaník
-762123,26337901;-1056638,35098771;22;CHKO;Český kras
-724725,65503403;-995777,10353598;23;CHKO;Kokořínsko - Máchův kraj
-784270,95735126;-1046930,13425260;24;CHKO;Křivoklátsko
-772350,36702706;-1171486,22186502;31;CHKO;Blanský les
-729467,81404172;-1166422,49153727;32;CHKO;Třeboňsko
-860620,72328502;-1027375,58349632;41;CHKO;Slavkovský les
-818781,43617491;-1155920,40282964;42;NP;Šumava
-808604,43854498;-1160360,27240891;43;CHKO;Šumava
-878369,26327202;-1076093,23160010;44;CHKO;Český les
-754787,16970458;-981310,85988261;51;CHKO;České středohoří
-676163,52228810;-969700,94529573;52;CHKO;Jizerské hory
-743975,26971410;-959327,31148352;53;CHKO;Labské pískovce
-719239,76625863;-963598,83220426;54;CHKO;Lužické hory
-734239,12976773;-954794,38512738;55;NP;České Švýcarsko
-607913,32617600;-1005502,18637512;62;CHKO;Broumovsko
-683354,70697306;-1001100,68140347;63;CHKO;Český ráj
-598311,13326972;-1042524,03184580;64;CHKO;Orlické hory
-653897,25950690;-1085457,08290830;65;CHKO;Železné hory
-647785,29228021;-985851,93819148;66;NP;Krkonošský národní park
-516758,33814808;-1192087,01841073;71;CHKO;Bílé Karpaty
-588381,16511454;-1147068,97588559;72;CHKO;Moravský kras
-598006,73557643;-1201690,01589715;73;CHKO;Pálava
-636466,22768100;-1104901,21986176;75;CHKO;Žďárské vrchy
-652442,02779260;-1192760,02879308;78;NP;Podyjí
-471175,39764484;-1144861,18957662;82;CHKO;Beskydy
-543971,31366140;-1065088,24595304;83;CHKO;Jeseníky
-557593,50683880;-1107536,82073180;84;CHKO;Litovelské Pomoraví
-489581,25809584;-1116941,37109927;85;CHKO;Poodří
-792264,26150438;-1082090,41578665;6018;CHKO;Brdy
